{
    "title":"Адаптация премиум шаблона uCoz под Atom-M",
    "desc":"Теперь немного о дизайне, ну думаю все видно из скриншота, дизайн очень красив , а самое главное функциональный, в архиве по мимо самого шаблона лежит 3 файла сниппетов, да да, для полноценной работы данного шаблона нужно будет создать сниппеты с кодом который приложен к каждому файлу, ну в архиве инструкция там подробно все изложено, так что еще сказать, адаптированы все модули, в том числе и фото-каталог. ",
    "more":"http://atomx.net/loads/adaptaciya_puzzle_dlya_atomm.htm"
}